15:08:42	[SESION]	Usuario/Constraseña incorrectos.
15:09:39	[SESION]	Usuario/Constraseña incorrectos.
20:27:32	[SESION]	Usuario conectado GPS[-0.2646897|-79.1730183][https://www.google.com/maps/place//@-0.2646897,-79.1730183,15z/data=!4m2!3m1!1s0x0:0x0].
20:28:42	[SESION]	Usuario/Constraseña incorrectos.
20:28:51	[SESION]	Usuario conectado GPS[-0.2646897|-79.1730183][https://www.google.com/maps/place//@-0.2646897,-79.1730183,15z/data=!4m2!3m1!1s0x0:0x0].
20:29:04	[CONSULTA]	Se registro una consulta en la base de datos SQL[select * from Cuentas_Monitoreo_Adt Where Codigo='1234' ].
20:29:04	[CONSULTA]	Se registro una consulta en la base de datos SQL[select * from Servicios where Estado = 1 order by Servicio Asc].
20:29:05	[CONSULTA]	Se registro una consulta en la base de datos SQL[select * from SubServicios where IdServicio=-1 and estado = 1 order by SubServicio].
20:29:05	[CONSULTA]	Se registro una consulta en la base de datos SQL[select * from RequerimientoSubCategoria where IdSubServicio=-101 and estado = 1 order by SubCategoria].
20:29:19	[CONSULTA]	Se registro una consulta en la base de datos SQL[select * from Cuentas_Monitoreo_Adt Where Codigo='1234' ].
20:29:19	[CONSULTA]	Se registro una consulta en la base de datos SQL[select * from Servicios where Estado = 1 order by Servicio Asc].
20:29:20	[CONSULTA]	Se registro una consulta en la base de datos SQL[select * from SubServicios where IdServicio=-1 and estado = 1 order by SubServicio].
20:29:20	[CONSULTA]	Se registro una consulta en la base de datos SQL[select * from RequerimientoSubCategoria where IdSubServicio=-101 and estado = 1 order by SubCategoria].
20:29:25	[CONSULTA]	Se registro una consulta en la base de datos SQL[select * from RequerimientoSubCategoria where IdSubServicio=-101 and estado = 1 order by SubCategoria].
20:29:25	[CONSULTA]	Se registro una consulta en la base de datos SQL[select * from SubServicios where IdServicio=32 and estado = 1 order by SubServicio].
20:29:27	[CONSULTA]	Se registro una consulta en la base de datos SQL[select * from RequerimientoSubCategoria where IdSubServicio=-84 and estado = 1 order by SubCategoria].
20:29:27	[CONSULTA]	Se registro una consulta en la base de datos SQL[select * from SubServicios where IdServicio=-2 and estado = 1 order by SubServicio].
20:29:28	[CONSULTA]	Se registro una consulta en la base de datos SQL[select * from RequerimientoSubCategoria where IdSubServicio=-116 and estado = 1 order by SubCategoria].
20:29:34	[CONSULTA]	Se registro una consulta en la base de datos SQL[select * from RequerimientoSubCategoria where IdSubServicio=-116 and estado = 1 order by SubCategoria].
20:29:34	[CONSULTA]	Se registro una consulta en la base de datos SQL[select * from SubServicios where IdServicio=32 and estado = 1 order by SubServicio].
20:29:34	[CONSULTA]	Se registro una consulta en la base de datos SQL[select * from RequerimientoSubCategoria where IdSubServicio=-84 and estado = 1 order by SubCategoria].
20:29:40	[CONSULTA]	Se registro una consulta en la base de datos SQL[select * from RequerimientoSubCategoria where IdSubServicio=-89 and estado = 1 order by SubCategoria].
20:29:41	[CONSULTA]	Se registro una consulta en la base de datos SQL[select * from RequerimientoSubCategoria where IdSubServicio=-89 and estado = 1 order by SubCategoria].
20:29:49	[CONSULTA]	Se registro una consulta en la base de datos SQL[select * from RequerimientoSubCategoria where IdSubServicio=-86 and estado = 1 order by SubCategoria].
20:29:52	[CONSULTA]	Se registro una consulta en la base de datos SQL[select * from RequerimientoSubCategoria where IdSubServicio=-86 and estado = 1 order by SubCategoria].
20:29:56	[CONSULTA]	Se registro una consulta en la base de datos SQL[select * from RequerimientoSubCategoria where IdSubServicio=-85 and estado = 1 order by SubCategoria].
20:29:57	[CONSULTA]	Se registro una consulta en la base de datos SQL[select * from RequerimientoSubCategoria where IdSubServicio=-85 and estado = 1 order by SubCategoria].
20:30:00	[CONSULTA]	Se registro una consulta en la base de datos SQL[select * from RequerimientoSubCategoria where IdSubServicio=-88 and estado = 1 order by SubCategoria].
20:30:00	[CONSULTA]	Se registro una consulta en la base de datos SQL[select * from RequerimientoSubCategoria where IdSubServicio=-88 and estado = 1 order by SubCategoria].
20:30:02	[CONSULTA]	Se registro una consulta en la base de datos SQL[select * from RequerimientoSubCategoria where IdSubServicio=-84 and estado = 1 order by SubCategoria].
20:30:03	[CONSULTA]	Se registro una consulta en la base de datos SQL[select * from RequerimientoSubCategoria where IdSubServicio=-84 and estado = 1 order by SubCategoria].
20:30:10	[CONSULTA]	Se registro una consulta en la base de datos SQL[select * from RequerimientoSubCategoria where IdSubServicio=-94 and estado = 1 order by SubCategoria].
20:30:14	[CONSULTA]	Se registro una consulta en la base de datos SQL[select * from RequerimientoSubCategoria where IdSubServicio=-94 and estado = 1 order by SubCategoria].
20:30:20	[CONSULTA]	Se registro una consulta en la base de datos SQL[select * from RequerimientoSubCategoria where IdSubServicio=-87 and estado = 1 order by SubCategoria].
20:30:21	[CONSULTA]	Se registro una consulta en la base de datos SQL[select * from RequerimientoSubCategoria where IdSubServicio=-87 and estado = 1 order by SubCategoria].
20:30:22	[CONSULTA]	Se registro una consulta en la base de datos SQL[select * from RequerimientoSubCategoria where IdSubServicio=-86 and estado = 1 order by SubCategoria].
20:30:23	[CONSULTA]	Se registro una consulta en la base de datos SQL[select * from RequerimientoSubCategoria where IdSubServicio=-86 and estado = 1 order by SubCategoria].
20:30:25	[CONSULTA]	Se registro una consulta en la base de datos SQL[select * from RequerimientoSubCategoria where IdSubServicio=-89 and estado = 1 order by SubCategoria].
20:30:26	[CONSULTA]	Se registro una consulta en la base de datos SQL[select * from RequerimientoSubCategoria where IdSubServicio=-89 and estado = 1 order by SubCategoria].
